EDA Netlist Writer report for de2
Thu May 02 21:45:13 2013
Quartus II Version 10.0 Build 218 06/27/2010 SJ Web Edition


---------------------
; Table of Contents ;
---------------------
  1. Legal Notice
  2. EDA Netlist Writer Summary
  3. Simulation Settings
  4. Simulation Generated Files
  5. EDA Netlist Writer Messages



----------------
; Legal Notice ;
----------------
Copyright (C) 1991-2010 Altera Corporation
Your use of Altera Corporation's design tools, logic functions 
and other software and tools, and its AMPP partner logic 
functions, and any output files from any of the foregoing 
(including device programming or simulation files), and any 
associated documentation or information are expressly subject 
to the terms and conditions of the Altera Program License 
Subscription Agreement, Altera MegaCore Function License 
Agreement, or other applicable license agreement, including, 
without limitation, that your use is for the sole purpose of 
programming logic devices manufactured by Altera and sold by 
Altera or its authorized distributors.  Please refer to the 
applicable agreement for further details.



+-------------------------------------------------------------------+
; EDA Netlist Writer Summary                                        ;
+---------------------------+---------------------------------------+
; EDA Netlist Writer Status ; Successful - Thu May 02 21:45:13 2013 ;
; Revision Name             ; de2                                   ;
; Top-level Entity Name     ; de2                                   ;
; Family                    ; Cyclone IV E                          ;
; Simulation Files Creation ; Successful                            ;
+---------------------------+---------------------------------------+


+-------------------------------------------------------------------------------------------------------------------------------+
; Simulation Settings                                                                                                           ;
+---------------------------------------------------------------------------------------------------+---------------------------+
; Option                                                                                            ; Setting                   ;
+---------------------------------------------------------------------------------------------------+---------------------------+
; Tool Name                                                                                         ; ModelSim-Altera (Verilog) ;
; Generate netlist for functional simulation only                                                   ; Off                       ;
; Time scale                                                                                        ; 1 ps                      ;
; Truncate long hierarchy paths                                                                     ; Off                       ;
; Map illegal HDL characters                                                                        ; Off                       ;
; Flatten buses into individual nodes                                                               ; Off                       ;
; Maintain hierarchy                                                                                ; Off                       ;
; Bring out device-wide set/reset signals as ports                                                  ; Off                       ;
; Enable glitch filtering                                                                           ; Off                       ;
; Do not write top level VHDL entity                                                                ; Off                       ;
; Disable detection of setup and hold time violations in the input registers of bi-directional pins ; Off                       ;
; Architecture name in VHDL output netlist                                                          ; structure                 ;
; Generate third-party EDA tool command script for RTL functional simulation                        ; Off                       ;
; Generate third-party EDA tool command script for gate-level simulation                            ; Off                       ;
+---------------------------------------------------------------------------------------------------+---------------------------+


+-----------------------------------------------------------------------+
; Simulation Generated Files                                            ;
+-----------------------------------------------------------------------+
; Generated Files                                                       ;
+-----------------------------------------------------------------------+
; D:/DSL/de2/merge_all/simulation/modelsim/de2_7_1200mv_85c_slow.vo     ;
; D:/DSL/de2/merge_all/simulation/modelsim/de2_7_1200mv_0c_slow.vo      ;
; D:/DSL/de2/merge_all/simulation/modelsim/de2_min_1200mv_0c_fast.vo    ;
; D:/DSL/de2/merge_all/simulation/modelsim/de2.vo                       ;
; D:/DSL/de2/merge_all/simulation/modelsim/de2_7_1200mv_85c_v_slow.sdo  ;
; D:/DSL/de2/merge_all/simulation/modelsim/de2_7_1200mv_0c_v_slow.sdo   ;
; D:/DSL/de2/merge_all/simulation/modelsim/de2_min_1200mv_0c_v_fast.sdo ;
; D:/DSL/de2/merge_all/simulation/modelsim/de2_v.sdo                    ;
+-----------------------------------------------------------------------+


+-----------------------------+
; EDA Netlist Writer Messages ;
+-----------------------------+
Info: *******************************************************************
Info: Running Quartus II EDA Netlist Writer
    Info: Version 10.0 Build 218 06/27/2010 SJ Web Edition
    Info: Processing started: Thu May 02 21:45:08 2013
Info: Command: quartus_eda --read_settings_files=off --write_settings_files=off de2 -c de2
Info: Generated simulation netlist will be non-hierarchical because the design has SignalTap II partitions, termination control logic and/or a design partition that contains bidirectional ports
Info: Generated file de2_7_1200mv_85c_slow.vo in folder "D:/DSL/de2/merge_all/simulation/modelsim/" for EDA simulation tool
Info: Generated file de2_7_1200mv_0c_slow.vo in folder "D:/DSL/de2/merge_all/simulation/modelsim/" for EDA simulation tool
Info: Generated file de2_min_1200mv_0c_fast.vo in folder "D:/DSL/de2/merge_all/simulation/modelsim/" for EDA simulation tool
Info: Generated file de2.vo in folder "D:/DSL/de2/merge_all/simulation/modelsim/" for EDA simulation tool
Info: Generated file de2_7_1200mv_85c_v_slow.sdo in folder "D:/DSL/de2/merge_all/simulation/modelsim/" for EDA simulation tool
Info: Generated file de2_7_1200mv_0c_v_slow.sdo in folder "D:/DSL/de2/merge_all/simulation/modelsim/" for EDA simulation tool
Info: Generated file de2_min_1200mv_0c_v_fast.sdo in folder "D:/DSL/de2/merge_all/simulation/modelsim/" for EDA simulation tool
Info: Generated file de2_v.sdo in folder "D:/DSL/de2/merge_all/simulation/modelsim/" for EDA simulation tool
Info: Quartus II EDA Netlist Writer was successful. 0 errors, 0 warnings
    Info: Peak virtual memory: 245 megabytes
    Info: Processing ended: Thu May 02 21:45:13 2013
    Info: Elapsed time: 00:00:05
    Info: Total CPU time (on all processors): 00:00:05


