
State Machine - |de2|func_reg
Name func_reg.101 func_reg.100 func_reg.011 func_reg.010 func_reg.001 func_reg.000 
func_reg.000 0 0 0 0 0 0 
func_reg.001 0 0 0 0 1 1 
func_reg.010 0 0 0 1 0 1 
func_reg.011 0 0 1 0 0 1 
func_reg.100 0 1 0 0 0 1 
func_reg.101 1 0 0 0 0 1 

State Machine - |de2|function4:fuck4|state
Name state.displayed_state state.moved_state state.cleared_state state.reset_state 
state.reset_state 0 0 0 0 
state.cleared_state 0 0 1 1 
state.moved_state 0 1 0 1 
state.displayed_state 1 0 0 1 

State Machine - |de2|function3:fuck3|state
Name state.displayed_state state.moved_state state.cleared_state state.reset_state 
state.reset_state 0 0 0 0 
state.cleared_state 0 0 1 1 
state.moved_state 0 1 0 1 
state.displayed_state 1 0 0 1 
