Analysis & Synthesis report for f5
<<<<<<< HEAD
<<<<<<< HEAD
Mon Apr 29 17:03:51 2013
=======
Mon Apr 29 19:00:07 2013
>>>>>>> 002d9b5a5c5f6b24948d6b2f42f0df9cf449b7c5
=======
Mon Apr 29 20:31:18 2013
>>>>>>> b129323665fb248d977efe358d0275a874c11f21
Quartus II Version 10.0 Build 218 06/27/2010 SJ Web Edition


---------------------
; Table of Contents ;
---------------------
  1. Legal Notice
  2. Analysis & Synthesis Summary
  3. Analysis & Synthesis Settings
  4. Parallel Compilation
  5. Analysis & Synthesis Source Files Read
  6. Analysis & Synthesis Resource Usage Summary
  7. Analysis & Synthesis Resource Utilization by Entity
  8. Analysis & Synthesis DSP Block Usage Summary
  9. General Register Statistics
 10. Inverted Register Statistics
 11. Multiplexer Restructuring Statistics (Restructuring Performed)
 12. Parameter Settings for Inferred Entity Instance: lpm_mult:Mult1
 13. Parameter Settings for Inferred Entity Instance: lpm_mult:Mult0
 14. Parameter Settings for Inferred Entity Instance: lpm_mult:Mult3
 15. Parameter Settings for Inferred Entity Instance: lpm_mult:Mult2
 16. lpm_mult Parameter Settings by Entity Instance
 17. Analysis & Synthesis Messages
 18. Analysis & Synthesis Suppressed Messages



----------------
; Legal Notice ;
----------------
Copyright (C) 1991-2010 Altera Corporation
Your use of Altera Corporation's design tools, logic functions 
and other software and tools, and its AMPP partner logic 
functions, and any output files from any of the foregoing 
(including device programming or simulation files), and any 
associated documentation or information are expressly subject 
to the terms and conditions of the Altera Program License 
Subscription Agreement, Altera MegaCore Function License 
Agreement, or other applicable license agreement, including, 
without limitation, that your use is for the sole purpose of 
programming logic devices manufactured by Altera and sold by 
Altera or its authorized distributors.  Please refer to the 
applicable agreement for further details.



+-------------------------------------------------------------------------------+
; Analysis & Synthesis Summary                                                  ;
+------------------------------------+------------------------------------------+
<<<<<<< HEAD
<<<<<<< HEAD
; Analysis & Synthesis Status        ; Successful - Mon Apr 29 17:03:51 2013    ;
=======
; Analysis & Synthesis Status        ; Successful - Mon Apr 29 19:00:07 2013    ;
>>>>>>> 002d9b5a5c5f6b24948d6b2f42f0df9cf449b7c5
=======
; Analysis & Synthesis Status        ; Successful - Mon Apr 29 20:31:18 2013    ;
>>>>>>> b129323665fb248d977efe358d0275a874c11f21
; Quartus II Version                 ; 10.0 Build 218 06/27/2010 SJ Web Edition ;
; Revision Name                      ; f5                                       ;
; Top-level Entity Name              ; f5                                       ;
; Family                             ; Cyclone IV E                             ;
<<<<<<< HEAD
<<<<<<< HEAD
; Total logic elements               ; 30                                       ;
;     Total combinational functions  ; 30                                       ;
;     Dedicated logic registers      ; 9                                        ;
; Total registers                    ; 9                                        ;
; Total pins                         ; 68                                       ;
=======
; Total logic elements               ; 84                                       ;
;     Total combinational functions  ; 84                                       ;
;     Dedicated logic registers      ; 20                                       ;
; Total registers                    ; 20                                       ;
; Total pins                         ; 57                                       ;
>>>>>>> 002d9b5a5c5f6b24948d6b2f42f0df9cf449b7c5
=======
; Total logic elements               ; 181                                      ;
;     Total combinational functions  ; 181                                      ;
;     Dedicated logic registers      ; 40                                       ;
; Total registers                    ; 40                                       ;
; Total pins                         ; 65                                       ;
>>>>>>> b129323665fb248d977efe358d0275a874c11f21
; Total virtual pins                 ; 0                                        ;
; Total memory bits                  ; 0                                        ;
; Embedded Multiplier 9-bit elements ; 8                                        ;
; Total PLLs                         ; 0                                        ;
+------------------------------------+------------------------------------------+


+----------------------------------------------------------------------------------------------------------------------+
; Analysis & Synthesis Settings                                                                                        ;
+----------------------------------------------------------------------------+--------------------+--------------------+
; Option                                                                     ; Setting            ; Default Value      ;
+----------------------------------------------------------------------------+--------------------+--------------------+
; Device                                                                     ; EP4CE115F29C7      ;                    ;
; Top-level entity name                                                      ; f5                 ; f5                 ;
; Family name                                                                ; Cyclone IV E       ; Stratix II         ;
; Use smart compilation                                                      ; Off                ; Off                ;
; Enable parallel Assembler and TimeQuest Timing Analyzer during compilation ; On                 ; On                 ;
; Enable compact report table                                                ; Off                ; Off                ;
; Restructure Multiplexers                                                   ; Auto               ; Auto               ;
; Create Debugging Nodes for IP Cores                                        ; Off                ; Off                ;
; Preserve fewer node names                                                  ; On                 ; On                 ;
; Disable OpenCore Plus hardware evaluation                                  ; Off                ; Off                ;
; Verilog Version                                                            ; Verilog_2001       ; Verilog_2001       ;
; VHDL Version                                                               ; VHDL_1993          ; VHDL_1993          ;
; State Machine Processing                                                   ; Auto               ; Auto               ;
; Safe State Machine                                                         ; Off                ; Off                ;
; Extract Verilog State Machines                                             ; On                 ; On                 ;
; Extract VHDL State Machines                                                ; On                 ; On                 ;
; Ignore Verilog initial constructs                                          ; Off                ; Off                ;
; Iteration limit for constant Verilog loops                                 ; 5000               ; 5000               ;
; Iteration limit for non-constant Verilog loops                             ; 250                ; 250                ;
; Add Pass-Through Logic to Inferred RAMs                                    ; On                 ; On                 ;
; Parallel Synthesis                                                         ; On                 ; On                 ;
; DSP Block Balancing                                                        ; Auto               ; Auto               ;
; NOT Gate Push-Back                                                         ; On                 ; On                 ;
; Power-Up Don't Care                                                        ; On                 ; On                 ;
; Remove Redundant Logic Cells                                               ; Off                ; Off                ;
; Remove Duplicate Registers                                                 ; On                 ; On                 ;
; Ignore CARRY Buffers                                                       ; Off                ; Off                ;
; Ignore CASCADE Buffers                                                     ; Off                ; Off                ;
; Ignore GLOBAL Buffers                                                      ; Off                ; Off                ;
; Ignore ROW GLOBAL Buffers                                                  ; Off                ; Off                ;
; Ignore LCELL Buffers                                                       ; Off                ; Off                ;
; Ignore SOFT Buffers                                                        ; On                 ; On                 ;
; Limit AHDL Integers to 32 Bits                                             ; Off                ; Off                ;
; Optimization Technique                                                     ; Balanced           ; Balanced           ;
; Carry Chain Length                                                         ; 70                 ; 70                 ;
; Auto Carry Chains                                                          ; On                 ; On                 ;
; Auto Open-Drain Pins                                                       ; On                 ; On                 ;
; Perform WYSIWYG Primitive Resynthesis                                      ; Off                ; Off                ;
; Auto ROM Replacement                                                       ; On                 ; On                 ;
; Auto RAM Replacement                                                       ; On                 ; On                 ;
; Auto DSP Block Replacement                                                 ; On                 ; On                 ;
; Auto Shift Register Replacement                                            ; Auto               ; Auto               ;
; Auto Clock Enable Replacement                                              ; On                 ; On                 ;
; Strict RAM Replacement                                                     ; Off                ; Off                ;
; Allow Synchronous Control Signals                                          ; On                 ; On                 ;
; Force Use of Synchronous Clear Signals                                     ; Off                ; Off                ;
; Auto RAM Block Balancing                                                   ; On                 ; On                 ;
; Auto RAM to Logic Cell Conversion                                          ; Off                ; Off                ;
; Auto Resource Sharing                                                      ; Off                ; Off                ;
; Allow Any RAM Size For Recognition                                         ; Off                ; Off                ;
; Allow Any ROM Size For Recognition                                         ; Off                ; Off                ;
; Allow Any Shift Register Size For Recognition                              ; Off                ; Off                ;
; Use LogicLock Constraints during Resource Balancing                        ; On                 ; On                 ;
; Ignore translate_off and synthesis_off directives                          ; Off                ; Off                ;
; Timing-Driven Synthesis                                                    ; On                 ; On                 ;
; Report Parameter Settings                                                  ; On                 ; On                 ;
; Report Source Assignments                                                  ; On                 ; On                 ;
; Report Connectivity Checks                                                 ; On                 ; On                 ;
; Ignore Maximum Fan-Out Assignments                                         ; Off                ; Off                ;
; Synchronization Register Chain Length                                      ; 2                  ; 2                  ;
; PowerPlay Power Optimization                                               ; Normal compilation ; Normal compilation ;
; HDL message level                                                          ; Level2             ; Level2             ;
; Suppress Register Optimization Related Messages                            ; Off                ; Off                ;
; Number of Removed Registers Reported in Synthesis Report                   ; 5000               ; 5000               ;
; Number of Inverted Registers Reported in Synthesis Report                  ; 100                ; 100                ;
; Clock MUX Protection                                                       ; On                 ; On                 ;
; Auto Gated Clock Conversion                                                ; Off                ; Off                ;
; Block Design Naming                                                        ; Auto               ; Auto               ;
; SDC constraint protection                                                  ; Off                ; Off                ;
; Synthesis Effort                                                           ; Auto               ; Auto               ;
; Shift Register Replacement - Allow Asynchronous Clear Signal               ; On                 ; On                 ;
; Analysis & Synthesis Message Level                                         ; Medium             ; Medium             ;
; Disable Register Merging Across Hierarchies                                ; Auto               ; Auto               ;
; Resource Aware Inference For Block RAM                                     ; On                 ; On                 ;
; Synthesis Seed                                                             ; 1                  ; 1                  ;
+----------------------------------------------------------------------------+--------------------+--------------------+


Parallel compilation was disabled, but you have multiple processors available. Enable parallel compilation to reduce compilation time.
+-------------------------------------+
; Parallel Compilation                ;
+----------------------------+--------+
; Processors                 ; Number ;
+----------------------------+--------+
; Number detected on machine ; 2      ;
; Maximum allowed            ; 1      ;
+----------------------------+--------+


<<<<<<< HEAD
+------------------------------------------------------------------------------------------------------------+
; Analysis & Synthesis Source Files Read                                                                     ;
+----------------------------------+-----------------+------------------------+------------------------------+
; File Name with User-Entered Path ; Used in Netlist ; File Type              ; File Name with Absolute Path ;
+----------------------------------+-----------------+------------------------+------------------------------+
; f5.v                             ; yes             ; User Verilog HDL File  ; C:/Users/pcjeff/de2/f5/f5.v  ;
+----------------------------------+-----------------+------------------------+------------------------------+
=======
+-------------------------------------------------------------------------------------------------------------------------------------------------+
; Analysis & Synthesis Source Files Read                                                                                                          ;
+----------------------------------+-----------------+------------------------------+-------------------------------------------------------------+
; File Name with User-Entered Path ; Used in Netlist ; File Type                    ; File Name with Absolute Path                                ;
+----------------------------------+-----------------+------------------------------+-------------------------------------------------------------+
; f5.v                             ; yes             ; User Verilog HDL File        ; D:/DSL/de2/f5/f5.v                                          ;
; lpm_mult.tdf                     ; yes             ; Megafunction                 ; c:/altera/10.0/quartus/libraries/megafunctions/lpm_mult.tdf ;
; db/mult_hbt.tdf                  ; yes             ; Auto-Generated Megafunction  ; D:/DSL/de2/f5/db/mult_hbt.tdf                               ;
+----------------------------------+-----------------+------------------------------+-------------------------------------------------------------+
>>>>>>> 002d9b5a5c5f6b24948d6b2f42f0df9cf449b7c5


+-----------------------------------------------------------+
; Analysis & Synthesis Resource Usage Summary               ;
+---------------------------------------------+-------------+
; Resource                                    ; Usage       ;
+---------------------------------------------+-------------+
; Estimated Total logic elements              ; 181         ;
;                                             ;             ;
; Total combinational functions               ; 181         ;
; Logic element usage by number of LUT inputs ;             ;
;     -- 4 input functions                    ; 77          ;
;     -- 3 input functions                    ; 47          ;
;     -- <=2 input functions                  ; 57          ;
;                                             ;             ;
; Logic elements by mode                      ;             ;
;     -- normal mode                          ; 145         ;
;     -- arithmetic mode                      ; 36          ;
;                                             ;             ;
; Total registers                             ; 40          ;
;     -- Dedicated logic registers            ; 40          ;
;     -- I/O registers                        ; 0           ;
;                                             ;             ;
<<<<<<< HEAD
<<<<<<< HEAD
; I/O pins                                    ; 68          ;
; Maximum fan-out node                        ; fq[1]~input ;
; Maximum fan-out                             ; 11          ;
; Total fan-out                               ; 190         ;
; Average fan-out                             ; 1.09        ;
+---------------------------------------------+-------------+


+------------------------------------------------------------------------------------------------------------------------------------------------------------------------------------------+
; Analysis & Synthesis Resource Utilization by Entity                                                                                                                                      ;
+----------------------------+-------------------+--------------+-------------+------------+--------------+---------+-----------+------+--------------+---------------------+--------------+
; Compilation Hierarchy Node ; LC Combinationals ; LC Registers ; Memory Bits ; DSP Blocks ; DSP Elements ; DSP 9x9 ; DSP 18x18 ; Pins ; Virtual Pins ; Full Hierarchy Name ; Library Name ;
+----------------------------+-------------------+--------------+-------------+------------+--------------+---------+-----------+------+--------------+---------------------+--------------+
; |f5                        ; 30 (30)           ; 9 (9)        ; 0           ; 0          ; 0            ; 0       ; 0         ; 68   ; 0            ; |f5                 ;              ;
+----------------------------+-------------------+--------------+-------------+------------+--------------+---------+-----------+------+--------------+---------------------+--------------+
=======
; I/O pins                                    ; 57          ;
; Embedded Multiplier 9-bit elements          ; 4           ;
; Maximum fan-out node                        ; fq[1]~input ;
; Maximum fan-out                             ; 23          ;
; Total fan-out                               ; 411         ;
; Average fan-out                             ; 1.85        ;
=======
; I/O pins                                    ; 65          ;
; Embedded Multiplier 9-bit elements          ; 8           ;
; Maximum fan-out node                        ; f_clk~input ;
; Maximum fan-out                             ; 40          ;
; Total fan-out                               ; 813         ;
; Average fan-out                             ; 2.26        ;
>>>>>>> b129323665fb248d977efe358d0275a874c11f21
+---------------------------------------------+-------------+


+----------------------------------------------------------------------------------------------------------------------------------------------------------------------------------------------------------------------+
; Analysis & Synthesis Resource Utilization by Entity                                                                                                                                                                  ;
+---------------------------------+-------------------+--------------+-------------+------------+--------------+---------+-----------+------+--------------+--------------------------------------------+--------------+
; Compilation Hierarchy Node      ; LC Combinationals ; LC Registers ; Memory Bits ; DSP Blocks ; DSP Elements ; DSP 9x9 ; DSP 18x18 ; Pins ; Virtual Pins ; Full Hierarchy Name                        ; Library Name ;
+---------------------------------+-------------------+--------------+-------------+------------+--------------+---------+-----------+------+--------------+--------------------------------------------+--------------+
; |f5                             ; 181 (181)         ; 40 (40)      ; 0           ; 0          ; 8            ; 0       ; 4         ; 65   ; 0            ; |f5                                        ;              ;
;    |lpm_mult:Mult0|             ; 0 (0)             ; 0 (0)        ; 0           ; 0          ; 2            ; 0       ; 1         ; 0    ; 0            ; |f5|lpm_mult:Mult0                         ;              ;
;       |mult_hbt:auto_generated| ; 0 (0)             ; 0 (0)        ; 0           ; 0          ; 2            ; 0       ; 1         ; 0    ; 0            ; |f5|lpm_mult:Mult0|mult_hbt:auto_generated ;              ;
;    |lpm_mult:Mult1|             ; 0 (0)             ; 0 (0)        ; 0           ; 0          ; 2            ; 0       ; 1         ; 0    ; 0            ; |f5|lpm_mult:Mult1                         ;              ;
;       |mult_hbt:auto_generated| ; 0 (0)             ; 0 (0)        ; 0           ; 0          ; 2            ; 0       ; 1         ; 0    ; 0            ; |f5|lpm_mult:Mult1|mult_hbt:auto_generated ;              ;
;    |lpm_mult:Mult2|             ; 0 (0)             ; 0 (0)        ; 0           ; 0          ; 2            ; 0       ; 1         ; 0    ; 0            ; |f5|lpm_mult:Mult2                         ;              ;
;       |mult_hbt:auto_generated| ; 0 (0)             ; 0 (0)        ; 0           ; 0          ; 2            ; 0       ; 1         ; 0    ; 0            ; |f5|lpm_mult:Mult2|mult_hbt:auto_generated ;              ;
;    |lpm_mult:Mult3|             ; 0 (0)             ; 0 (0)        ; 0           ; 0          ; 2            ; 0       ; 1         ; 0    ; 0            ; |f5|lpm_mult:Mult3                         ;              ;
;       |mult_hbt:auto_generated| ; 0 (0)             ; 0 (0)        ; 0           ; 0          ; 2            ; 0       ; 1         ; 0    ; 0            ; |f5|lpm_mult:Mult3|mult_hbt:auto_generated ;              ;
+---------------------------------+-------------------+--------------+-------------+------------+--------------+---------+-----------+------+--------------+--------------------------------------------+--------------+
>>>>>>> 002d9b5a5c5f6b24948d6b2f42f0df9cf449b7c5
Note: For table entries with two numbers listed, the numbers in parentheses indicate the number of resources of the given type used by the specific entity alone. The numbers listed outside of parentheses indicate the total resources of the given type used by the specific entity and all of its sub-entities in the hierarchy.


+-----------------------------------------------------+
; Analysis & Synthesis DSP Block Usage Summary        ;
+---------------------------------------+-------------+
; Statistic                             ; Number Used ;
+---------------------------------------+-------------+
; Simple Multipliers (9-bit)            ; 0           ;
; Simple Multipliers (18-bit)           ; 4           ;
; Embedded Multiplier Blocks            ; --          ;
; Embedded Multiplier 9-bit elements    ; 8           ;
; Signed Embedded Multipliers           ; 0           ;
; Unsigned Embedded Multipliers         ; 4           ;
; Mixed Sign Embedded Multipliers       ; 0           ;
; Variable Sign Embedded Multipliers    ; 0           ;
; Dedicated Input Shift Register Chains ; 0           ;
+---------------------------------------+-------------+
Note: number of Embedded Multiplier Blocks used is only available after a successful fit.


+------------------------------------------------------+
; General Register Statistics                          ;
+----------------------------------------------+-------+
; Statistic                                    ; Value ;
+----------------------------------------------+-------+
; Total registers                              ; 40    ;
; Number of registers using Synchronous Clear  ; 38    ;
; Number of registers using Synchronous Load   ; 0     ;
; Number of registers using Asynchronous Clear ; 0     ;
; Number of registers using Asynchronous Load  ; 0     ;
; Number of registers using Clock Enable       ; 0     ;
; Number of registers using Preset             ; 0     ;
+----------------------------------------------+-------+


+--------------------------------------------------+
; Inverted Register Statistics                     ;
+----------------------------------------+---------+
; Inverted Register                      ; Fan out ;
+----------------------------------------+---------+
; f_ch1_out                              ; 4       ;
; f_ch2_out                              ; 4       ;
; Total number of inverted registers = 2 ;         ;
+----------------------------------------+---------+


+------------------------------------------------------------------------------------------------------------------------------------------+
; Multiplexer Restructuring Statistics (Restructuring Performed)                                                                           ;
+--------------------+-----------+---------------+----------------------+------------------------+------------+----------------------------+
; Multiplexer Inputs ; Bus Width ; Baseline Area ; Area if Restructured ; Saving if Restructured ; Registered ; Example Multiplexer Output ;
+--------------------+-----------+---------------+----------------------+------------------------+------------+----------------------------+
; 3:1                ; 2 bits    ; 4 LEs         ; 4 LEs                ; 0 LEs                  ; No         ; |f5|ch2_fq_clk[7]          ;
; 4:1                ; 2 bits    ; 4 LEs         ; 4 LEs                ; 0 LEs                  ; No         ; |f5|ch2_fq_clk[6]          ;
; 3:1                ; 2 bits    ; 4 LEs         ; 4 LEs                ; 0 LEs                  ; No         ; |f5|ch1_fq_clk[7]          ;
; 4:1                ; 2 bits    ; 4 LEs         ; 4 LEs                ; 0 LEs                  ; No         ; |f5|ch1_fq_clk[6]          ;
; 4:1                ; 2 bits    ; 4 LEs         ; 4 LEs                ; 0 LEs                  ; No         ; |f5|fq3_latch[5]           ;
; 4:1                ; 2 bits    ; 4 LEs         ; 4 LEs                ; 0 LEs                  ; No         ; |f5|fq5_latch[2]           ;
; 6:1                ; 2 bits    ; 8 LEs         ; 4 LEs                ; 4 LEs                  ; No         ; |f5|fq4_latch[1]           ;
; 6:1                ; 2 bits    ; 8 LEs         ; 6 LEs                ; 2 LEs                  ; No         ; |f5|duty2_latch[0]         ;
+--------------------+-----------+---------------+----------------------+------------------------+------------+----------------------------+


+-------------------------------------------------------------------------------------+
; Parameter Settings for Inferred Entity Instance: lpm_mult:Mult1                     ;
+------------------------------------------------+--------------+---------------------+
; Parameter Name                                 ; Value        ; Type                ;
+------------------------------------------------+--------------+---------------------+
; AUTO_CARRY_CHAINS                              ; ON           ; AUTO_CARRY          ;
; IGNORE_CARRY_BUFFERS                           ; OFF          ; IGNORE_CARRY        ;
; AUTO_CASCADE_CHAINS                            ; ON           ; AUTO_CASCADE        ;
; IGNORE_CASCADE_BUFFERS                         ; OFF          ; IGNORE_CASCADE      ;
; LPM_WIDTHA                                     ; 13           ; Untyped             ;
; LPM_WIDTHB                                     ; 7            ; Untyped             ;
; LPM_WIDTHP                                     ; 20           ; Untyped             ;
; LPM_WIDTHR                                     ; 20           ; Untyped             ;
; LPM_WIDTHS                                     ; 1            ; Untyped             ;
; LPM_REPRESENTATION                             ; UNSIGNED     ; Untyped             ;
; LPM_PIPELINE                                   ; 0            ; Untyped             ;
; LATENCY                                        ; 0            ; Untyped             ;
; INPUT_A_IS_CONSTANT                            ; NO           ; Untyped             ;
; INPUT_B_IS_CONSTANT                            ; NO           ; Untyped             ;
; USE_EAB                                        ; OFF          ; Untyped             ;
; MAXIMIZE_SPEED                                 ; 6            ; Untyped             ;
; DEVICE_FAMILY                                  ; Cyclone IV E ; Untyped             ;
; CARRY_CHAIN                                    ; MANUAL       ; Untyped             ;
; APEX20K_TECHNOLOGY_MAPPER                      ; LUT          ; TECH_MAPPER_APEX20K ;
; DEDICATED_MULTIPLIER_CIRCUITRY                 ; AUTO         ; Untyped             ;
; DEDICATED_MULTIPLIER_MIN_INPUT_WIDTH_FOR_AUTO  ; 0            ; Untyped             ;
; DEDICATED_MULTIPLIER_MIN_OUTPUT_WIDTH_FOR_AUTO ; 0            ; Untyped             ;
; CBXI_PARAMETER                                 ; mult_hbt     ; Untyped             ;
; INPUT_A_FIXED_VALUE                            ; Bx           ; Untyped             ;
; INPUT_B_FIXED_VALUE                            ; Bx           ; Untyped             ;
; USE_AHDL_IMPLEMENTATION                        ; OFF          ; Untyped             ;
+------------------------------------------------+--------------+---------------------+
Note: In order to hide this table in the UI and the text report file, please set the "Show Parameter Settings in Synthesis Report" option in "Analysis and Synthesis Settings -> More Settings" to "Off".


+-------------------------------------------------------------------------------------+
; Parameter Settings for Inferred Entity Instance: lpm_mult:Mult0                     ;
+------------------------------------------------+--------------+---------------------+
; Parameter Name                                 ; Value        ; Type                ;
+------------------------------------------------+--------------+---------------------+
; AUTO_CARRY_CHAINS                              ; ON           ; AUTO_CARRY          ;
; IGNORE_CARRY_BUFFERS                           ; OFF          ; IGNORE_CARRY        ;
; AUTO_CASCADE_CHAINS                            ; ON           ; AUTO_CASCADE        ;
; IGNORE_CASCADE_BUFFERS                         ; OFF          ; IGNORE_CASCADE      ;
; LPM_WIDTHA                                     ; 13           ; Untyped             ;
; LPM_WIDTHB                                     ; 7            ; Untyped             ;
; LPM_WIDTHP                                     ; 20           ; Untyped             ;
; LPM_WIDTHR                                     ; 20           ; Untyped             ;
; LPM_WIDTHS                                     ; 1            ; Untyped             ;
; LPM_REPRESENTATION                             ; UNSIGNED     ; Untyped             ;
; LPM_PIPELINE                                   ; 0            ; Untyped             ;
; LATENCY                                        ; 0            ; Untyped             ;
; INPUT_A_IS_CONSTANT                            ; NO           ; Untyped             ;
; INPUT_B_IS_CONSTANT                            ; NO           ; Untyped             ;
; USE_EAB                                        ; OFF          ; Untyped             ;
; MAXIMIZE_SPEED                                 ; 6            ; Untyped             ;
; DEVICE_FAMILY                                  ; Cyclone IV E ; Untyped             ;
; CARRY_CHAIN                                    ; MANUAL       ; Untyped             ;
; APEX20K_TECHNOLOGY_MAPPER                      ; LUT          ; TECH_MAPPER_APEX20K ;
; DEDICATED_MULTIPLIER_CIRCUITRY                 ; AUTO         ; Untyped             ;
; DEDICATED_MULTIPLIER_MIN_INPUT_WIDTH_FOR_AUTO  ; 0            ; Untyped             ;
; DEDICATED_MULTIPLIER_MIN_OUTPUT_WIDTH_FOR_AUTO ; 0            ; Untyped             ;
; CBXI_PARAMETER                                 ; mult_hbt     ; Untyped             ;
; INPUT_A_FIXED_VALUE                            ; Bx           ; Untyped             ;
; INPUT_B_FIXED_VALUE                            ; Bx           ; Untyped             ;
; USE_AHDL_IMPLEMENTATION                        ; OFF          ; Untyped             ;
+------------------------------------------------+--------------+---------------------+
Note: In order to hide this table in the UI and the text report file, please set the "Show Parameter Settings in Synthesis Report" option in "Analysis and Synthesis Settings -> More Settings" to "Off".


+-------------------------------------------------------------------------------------+
; Parameter Settings for Inferred Entity Instance: lpm_mult:Mult3                     ;
+------------------------------------------------+--------------+---------------------+
; Parameter Name                                 ; Value        ; Type                ;
+------------------------------------------------+--------------+---------------------+
; AUTO_CARRY_CHAINS                              ; ON           ; AUTO_CARRY          ;
; IGNORE_CARRY_BUFFERS                           ; OFF          ; IGNORE_CARRY        ;
; AUTO_CASCADE_CHAINS                            ; ON           ; AUTO_CASCADE        ;
; IGNORE_CASCADE_BUFFERS                         ; OFF          ; IGNORE_CASCADE      ;
; LPM_WIDTHA                                     ; 13           ; Untyped             ;
; LPM_WIDTHB                                     ; 7            ; Untyped             ;
; LPM_WIDTHP                                     ; 20           ; Untyped             ;
; LPM_WIDTHR                                     ; 20           ; Untyped             ;
; LPM_WIDTHS                                     ; 1            ; Untyped             ;
; LPM_REPRESENTATION                             ; UNSIGNED     ; Untyped             ;
; LPM_PIPELINE                                   ; 0            ; Untyped             ;
; LATENCY                                        ; 0            ; Untyped             ;
; INPUT_A_IS_CONSTANT                            ; NO           ; Untyped             ;
; INPUT_B_IS_CONSTANT                            ; NO           ; Untyped             ;
; USE_EAB                                        ; OFF          ; Untyped             ;
; MAXIMIZE_SPEED                                 ; 6            ; Untyped             ;
; DEVICE_FAMILY                                  ; Cyclone IV E ; Untyped             ;
; CARRY_CHAIN                                    ; MANUAL       ; Untyped             ;
; APEX20K_TECHNOLOGY_MAPPER                      ; LUT          ; TECH_MAPPER_APEX20K ;
; DEDICATED_MULTIPLIER_CIRCUITRY                 ; AUTO         ; Untyped             ;
; DEDICATED_MULTIPLIER_MIN_INPUT_WIDTH_FOR_AUTO  ; 0            ; Untyped             ;
; DEDICATED_MULTIPLIER_MIN_OUTPUT_WIDTH_FOR_AUTO ; 0            ; Untyped             ;
; CBXI_PARAMETER                                 ; mult_hbt     ; Untyped             ;
; INPUT_A_FIXED_VALUE                            ; Bx           ; Untyped             ;
; INPUT_B_FIXED_VALUE                            ; Bx           ; Untyped             ;
; USE_AHDL_IMPLEMENTATION                        ; OFF          ; Untyped             ;
+------------------------------------------------+--------------+---------------------+
Note: In order to hide this table in the UI and the text report file, please set the "Show Parameter Settings in Synthesis Report" option in "Analysis and Synthesis Settings -> More Settings" to "Off".


+-------------------------------------------------------------------------------------+
; Parameter Settings for Inferred Entity Instance: lpm_mult:Mult2                     ;
+------------------------------------------------+--------------+---------------------+
; Parameter Name                                 ; Value        ; Type                ;
+------------------------------------------------+--------------+---------------------+
; AUTO_CARRY_CHAINS                              ; ON           ; AUTO_CARRY          ;
; IGNORE_CARRY_BUFFERS                           ; OFF          ; IGNORE_CARRY        ;
; AUTO_CASCADE_CHAINS                            ; ON           ; AUTO_CASCADE        ;
; IGNORE_CASCADE_BUFFERS                         ; OFF          ; IGNORE_CASCADE      ;
; LPM_WIDTHA                                     ; 13           ; Untyped             ;
; LPM_WIDTHB                                     ; 7            ; Untyped             ;
; LPM_WIDTHP                                     ; 20           ; Untyped             ;
; LPM_WIDTHR                                     ; 20           ; Untyped             ;
; LPM_WIDTHS                                     ; 1            ; Untyped             ;
; LPM_REPRESENTATION                             ; UNSIGNED     ; Untyped             ;
; LPM_PIPELINE                                   ; 0            ; Untyped             ;
; LATENCY                                        ; 0            ; Untyped             ;
; INPUT_A_IS_CONSTANT                            ; NO           ; Untyped             ;
; INPUT_B_IS_CONSTANT                            ; NO           ; Untyped             ;
; USE_EAB                                        ; OFF          ; Untyped             ;
; MAXIMIZE_SPEED                                 ; 6            ; Untyped             ;
; DEVICE_FAMILY                                  ; Cyclone IV E ; Untyped             ;
; CARRY_CHAIN                                    ; MANUAL       ; Untyped             ;
; APEX20K_TECHNOLOGY_MAPPER                      ; LUT          ; TECH_MAPPER_APEX20K ;
; DEDICATED_MULTIPLIER_CIRCUITRY                 ; AUTO         ; Untyped             ;
; DEDICATED_MULTIPLIER_MIN_INPUT_WIDTH_FOR_AUTO  ; 0            ; Untyped             ;
; DEDICATED_MULTIPLIER_MIN_OUTPUT_WIDTH_FOR_AUTO ; 0            ; Untyped             ;
; CBXI_PARAMETER                                 ; mult_hbt     ; Untyped             ;
; INPUT_A_FIXED_VALUE                            ; Bx           ; Untyped             ;
; INPUT_B_FIXED_VALUE                            ; Bx           ; Untyped             ;
; USE_AHDL_IMPLEMENTATION                        ; OFF          ; Untyped             ;
+------------------------------------------------+--------------+---------------------+
Note: In order to hide this table in the UI and the text report file, please set the "Show Parameter Settings in Synthesis Report" option in "Analysis and Synthesis Settings -> More Settings" to "Off".


+--------------------------------------------------------+
; lpm_mult Parameter Settings by Entity Instance         ;
+---------------------------------------+----------------+
; Name                                  ; Value          ;
+---------------------------------------+----------------+
; Number of entity instances            ; 4              ;
; Entity Instance                       ; lpm_mult:Mult1 ;
;     -- LPM_WIDTHA                     ; 13             ;
;     -- LPM_WIDTHB                     ; 7              ;
;     -- LPM_WIDTHP                     ; 20             ;
;     -- LPM_REPRESENTATION             ; UNSIGNED       ;
;     -- INPUT_A_IS_CONSTANT            ; NO             ;
;     -- INPUT_B_IS_CONSTANT            ; NO             ;
;     -- USE_EAB                        ; OFF            ;
;     -- DEDICATED_MULTIPLIER_CIRCUITRY ; AUTO           ;
;     -- INPUT_A_FIXED_VALUE            ; Bx             ;
;     -- INPUT_B_FIXED_VALUE            ; Bx             ;
; Entity Instance                       ; lpm_mult:Mult0 ;
;     -- LPM_WIDTHA                     ; 13             ;
;     -- LPM_WIDTHB                     ; 7              ;
;     -- LPM_WIDTHP                     ; 20             ;
;     -- LPM_REPRESENTATION             ; UNSIGNED       ;
;     -- INPUT_A_IS_CONSTANT            ; NO             ;
;     -- INPUT_B_IS_CONSTANT            ; NO             ;
;     -- USE_EAB                        ; OFF            ;
;     -- DEDICATED_MULTIPLIER_CIRCUITRY ; AUTO           ;
;     -- INPUT_A_FIXED_VALUE            ; Bx             ;
;     -- INPUT_B_FIXED_VALUE            ; Bx             ;
; Entity Instance                       ; lpm_mult:Mult3 ;
;     -- LPM_WIDTHA                     ; 13             ;
;     -- LPM_WIDTHB                     ; 7              ;
;     -- LPM_WIDTHP                     ; 20             ;
;     -- LPM_REPRESENTATION             ; UNSIGNED       ;
;     -- INPUT_A_IS_CONSTANT            ; NO             ;
;     -- INPUT_B_IS_CONSTANT            ; NO             ;
;     -- USE_EAB                        ; OFF            ;
;     -- DEDICATED_MULTIPLIER_CIRCUITRY ; AUTO           ;
;     -- INPUT_A_FIXED_VALUE            ; Bx             ;
;     -- INPUT_B_FIXED_VALUE            ; Bx             ;
; Entity Instance                       ; lpm_mult:Mult2 ;
;     -- LPM_WIDTHA                     ; 13             ;
;     -- LPM_WIDTHB                     ; 7              ;
;     -- LPM_WIDTHP                     ; 20             ;
;     -- LPM_REPRESENTATION             ; UNSIGNED       ;
;     -- INPUT_A_IS_CONSTANT            ; NO             ;
;     -- INPUT_B_IS_CONSTANT            ; NO             ;
;     -- USE_EAB                        ; OFF            ;
;     -- DEDICATED_MULTIPLIER_CIRCUITRY ; AUTO           ;
;     -- INPUT_A_FIXED_VALUE            ; Bx             ;
;     -- INPUT_B_FIXED_VALUE            ; Bx             ;
+---------------------------------------+----------------+


+-------------------------------+
; Analysis & Synthesis Messages ;
+-------------------------------+
Info: *******************************************************************
Info: Running Quartus II Analysis & Synthesis
    Info: Version 10.0 Build 218 06/27/2010 SJ Web Edition
<<<<<<< HEAD
<<<<<<< HEAD
    Info: Processing started: Mon Apr 29 17:03:50 2013
Info: Command: quartus_map --read_settings_files=on --write_settings_files=off f5 -c f5
Warning (10229): Verilog HDL Expression warning at f5.v(96): truncated literal to match 6 bits
Warning (10229): Verilog HDL Expression warning at f5.v(102): truncated literal to match 6 bits
Warning (10229): Verilog HDL Expression warning at f5.v(136): truncated literal to match 6 bits
Warning (10229): Verilog HDL Expression warning at f5.v(140): truncated literal to match 6 bits
Info: Found 1 design units, including 1 entities, in source file f5.v
    Info: Found entity 1: f5
Info: Elaborating entity "f5" for the top level hierarchy
Warning (10858): Verilog HDL warning at f5.v(20): object lcd_reg used but never assigned
Warning (10858): Verilog HDL warning at f5.v(21): object lcden_reg used but never assigned
Warning (10858): Verilog HDL warning at f5.v(22): object lcdrw_reg used but never assigned
Warning (10858): Verilog HDL warning at f5.v(23): object lcdrs_reg used but never assigned
Warning (10230): Verilog HDL assignment warning at f5.v(35): truncated value with size 8 to match size of target (1)
Warning (10230): Verilog HDL assignment warning at f5.v(36): truncated value with size 8 to match size of target (1)
Warning (10240): Verilog HDL Always Construct warning at f5.v(57): inferring latch(es) for variable "fq_value", which holds its previous value in one or more paths through the always construct
Warning (10240): Verilog HDL Always Construct warning at f5.v(57): inferring latch(es) for variable "fq3_latch", which holds its previous value in one or more paths through the always construct
Warning (10240): Verilog HDL Always Construct warning at f5.v(57): inferring latch(es) for variable "fq4_latch", which holds its previous value in one or more paths through the always construct
Warning (10240): Verilog HDL Always Construct warning at f5.v(57): inferring latch(es) for variable "fq5_latch", which holds its previous value in one or more paths through the always construct
Warning (10240): Verilog HDL Always Construct warning at f5.v(109): inferring latch(es) for variable "duty_value", which holds its previous value in one or more paths through the always construct
Warning (10240): Verilog HDL Always Construct warning at f5.v(109): inferring latch(es) for variable "duty2_latch", which holds its previous value in one or more paths through the always construct
Warning (10230): Verilog HDL assignment warning at f5.v(153): truncated value with size 32 to match size of target (8)
Warning (10030): Net "lcd_reg" at f5.v(20) has no driver or initial value, using a default initial value '0'
Warning (10030): Net "lcden_reg" at f5.v(21) has no driver or initial value, using a default initial value '0'
Warning (10030): Net "lcdrw_reg" at f5.v(22) has no driver or initial value, using a default initial value '0'
Warning (10030): Net "lcdrs_reg" at f5.v(23) has no driver or initial value, using a default initial value '0'
Info (10041): Inferred latch for "duty2_latch[0]" at f5.v(115)
Info (10041): Inferred latch for "duty2_latch[1]" at f5.v(115)
Info (10041): Inferred latch for "duty2_latch[2]" at f5.v(115)
Info (10041): Inferred latch for "duty2_latch[3]" at f5.v(115)
Info (10041): Inferred latch for "duty2_latch[4]" at f5.v(115)
Info (10041): Inferred latch for "duty2_latch[5]" at f5.v(115)
Info (10041): Inferred latch for "duty2_latch[6]" at f5.v(115)
Info (10041): Inferred latch for "duty_value[0]" at f5.v(115)
Info (10041): Inferred latch for "duty_value[1]" at f5.v(115)
Info (10041): Inferred latch for "duty_value[2]" at f5.v(115)
Info (10041): Inferred latch for "duty_value[3]" at f5.v(115)
Info (10041): Inferred latch for "duty_value[4]" at f5.v(115)
Info (10041): Inferred latch for "duty_value[5]" at f5.v(115)
Info (10041): Inferred latch for "duty_value[6]" at f5.v(115)
Info (10041): Inferred latch for "duty_value[7]" at f5.v(115)
Info (10041): Inferred latch for "fq5_latch[0]" at f5.v(65)
Info (10041): Inferred latch for "fq5_latch[1]" at f5.v(65)
Info (10041): Inferred latch for "fq5_latch[2]" at f5.v(65)
Info (10041): Inferred latch for "fq5_latch[3]" at f5.v(65)
Info (10041): Inferred latch for "fq5_latch[4]" at f5.v(65)
Info (10041): Inferred latch for "fq5_latch[5]" at f5.v(65)
Info (10041): Inferred latch for "fq5_latch[6]" at f5.v(65)
Info (10041): Inferred latch for "fq4_latch[0]" at f5.v(65)
Info (10041): Inferred latch for "fq4_latch[1]" at f5.v(65)
Info (10041): Inferred latch for "fq4_latch[2]" at f5.v(65)
Info (10041): Inferred latch for "fq4_latch[3]" at f5.v(65)
Info (10041): Inferred latch for "fq4_latch[4]" at f5.v(65)
Info (10041): Inferred latch for "fq4_latch[5]" at f5.v(65)
Info (10041): Inferred latch for "fq4_latch[6]" at f5.v(65)
Info (10041): Inferred latch for "fq3_latch[0]" at f5.v(65)
Info (10041): Inferred latch for "fq3_latch[1]" at f5.v(65)
Info (10041): Inferred latch for "fq3_latch[2]" at f5.v(65)
Info (10041): Inferred latch for "fq3_latch[3]" at f5.v(65)
Info (10041): Inferred latch for "fq3_latch[4]" at f5.v(65)
Info (10041): Inferred latch for "fq3_latch[5]" at f5.v(65)
Info (10041): Inferred latch for "fq3_latch[6]" at f5.v(65)
Info (10041): Inferred latch for "fq_value[0]" at f5.v(65)
Info (10041): Inferred latch for "fq_value[1]" at f5.v(65)
Info (10041): Inferred latch for "fq_value[2]" at f5.v(65)
Info (10041): Inferred latch for "fq_value[3]" at f5.v(65)
Info (10041): Inferred latch for "fq_value[4]" at f5.v(65)
Info (10041): Inferred latch for "fq_value[5]" at f5.v(65)
Info (10041): Inferred latch for "fq_value[6]" at f5.v(65)
Info (10041): Inferred latch for "fq_value[7]" at f5.v(65)
=======
    Info: Processing started: Mon Apr 29 19:00:04 2013
=======
    Info: Processing started: Mon Apr 29 20:31:15 2013
>>>>>>> b129323665fb248d977efe358d0275a874c11f21
Info: Command: quartus_map --read_settings_files=on --write_settings_files=off f5 -c f5
Info: Found 1 design units, including 1 entities, in source file f5.v
    Info: Found entity 1: f5
Info: Elaborating entity "f5" for the top level hierarchy
Warning (10240): Verilog HDL Always Construct warning at f5.v(45): inferring latch(es) for variable "ch1_fq_clk", which holds its previous value in one or more paths through the always construct
Warning (10240): Verilog HDL Always Construct warning at f5.v(65): inferring latch(es) for variable "ch2_fq_clk", which holds its previous value in one or more paths through the always construct
Warning (10240): Verilog HDL Always Construct warning at f5.v(85): inferring latch(es) for variable "ch1_duty_high_value", which holds its previous value in one or more paths through the always construct
Warning (10240): Verilog HDL Always Construct warning at f5.v(85): inferring latch(es) for variable "ch1_duty_low_value", which holds its previous value in one or more paths through the always construct
Warning (10240): Verilog HDL Always Construct warning at f5.v(121): inferring latch(es) for variable "ch2_duty_high_value", which holds its previous value in one or more paths through the always construct
Warning (10240): Verilog HDL Always Construct warning at f5.v(121): inferring latch(es) for variable "ch2_duty_low_value", which holds its previous value in one or more paths through the always construct
Warning (10235): Verilog HDL Always Construct warning at f5.v(161): variable "ch1_fq" is read inside the Always Construct but isn't in the Always Construct's Event Control
Warning (10235): Verilog HDL Always Construct warning at f5.v(166): variable "ch1_fq" is read inside the Always Construct but isn't in the Always Construct's Event Control
Warning (10235): Verilog HDL Always Construct warning at f5.v(171): variable "ch1_fq" is read inside the Always Construct but isn't in the Always Construct's Event Control
Warning (10235): Verilog HDL Always Construct warning at f5.v(176): variable "ch1_fq" is read inside the Always Construct but isn't in the Always Construct's Event Control
Warning (10235): Verilog HDL Always Construct warning at f5.v(181): variable "ch1_fq" is read inside the Always Construct but isn't in the Always Construct's Event Control
Warning (10235): Verilog HDL Always Construct warning at f5.v(186): variable "ch1_fq" is read inside the Always Construct but isn't in the Always Construct's Event Control
Warning (10235): Verilog HDL Always Construct warning at f5.v(191): variable "ch1_fq" is read inside the Always Construct but isn't in the Always Construct's Event Control
Warning (10235): Verilog HDL Always Construct warning at f5.v(196): variable "ch1_fq" is read inside the Always Construct but isn't in the Always Construct's Event Control
Warning (10235): Verilog HDL Always Construct warning at f5.v(202): variable "ch1_duty" is read inside the Always Construct but isn't in the Always Construct's Event Control
Warning (10235): Verilog HDL Always Construct warning at f5.v(203): variable "ch1_duty" is read inside the Always Construct but isn't in the Always Construct's Event Control
Warning (10235): Verilog HDL Always Construct warning at f5.v(204): variable "ch1_duty" is read inside the Always Construct but isn't in the Always Construct's Event Control
Warning (10235): Verilog HDL Always Construct warning at f5.v(205): variable "ch1_duty" is read inside the Always Construct but isn't in the Always Construct's Event Control
Warning (10235): Verilog HDL Always Construct warning at f5.v(206): variable "ch1_duty" is read inside the Always Construct but isn't in the Always Construct's Event Control
Warning (10235): Verilog HDL Always Construct warning at f5.v(207): variable "ch1_duty" is read inside the Always Construct but isn't in the Always Construct's Event Control
Warning (10235): Verilog HDL Always Construct warning at f5.v(208): variable "ch1_duty" is read inside the Always Construct but isn't in the Always Construct's Event Control
Warning (10235): Verilog HDL Always Construct warning at f5.v(209): variable "ch1_duty" is read inside the Always Construct but isn't in the Always Construct's Event Control
Warning (10235): Verilog HDL Always Construct warning at f5.v(213): variable "ch2_fq" is read inside the Always Construct but isn't in the Always Construct's Event Control
Warning (10235): Verilog HDL Always Construct warning at f5.v(218): variable "ch2_fq" is read inside the Always Construct but isn't in the Always Construct's Event Control
Warning (10235): Verilog HDL Always Construct warning at f5.v(223): variable "ch2_fq" is read inside the Always Construct but isn't in the Always Construct's Event Control
Warning (10235): Verilog HDL Always Construct warning at f5.v(228): variable "ch2_fq" is read inside the Always Construct but isn't in the Always Construct's Event Control
Warning (10235): Verilog HDL Always Construct warning at f5.v(233): variable "ch2_fq" is read inside the Always Construct but isn't in the Always Construct's Event Control
Warning (10235): Verilog HDL Always Construct warning at f5.v(238): variable "ch2_fq" is read inside the Always Construct but isn't in the Always Construct's Event Control
Warning (10235): Verilog HDL Always Construct warning at f5.v(243): variable "ch2_fq" is read inside the Always Construct but isn't in the Always Construct's Event Control
Warning (10235): Verilog HDL Always Construct warning at f5.v(248): variable "ch2_fq" is read inside the Always Construct but isn't in the Always Construct's Event Control
Warning (10235): Verilog HDL Always Construct warning at f5.v(254): variable "ch2_duty" is read inside the Always Construct but isn't in the Always Construct's Event Control
Warning (10235): Verilog HDL Always Construct warning at f5.v(255): variable "ch2_duty" is read inside the Always Construct but isn't in the Always Construct's Event Control
Warning (10235): Verilog HDL Always Construct warning at f5.v(256): variable "ch2_duty" is read inside the Always Construct but isn't in the Always Construct's Event Control
Warning (10235): Verilog HDL Always Construct warning at f5.v(257): variable "ch2_duty" is read inside the Always Construct but isn't in the Always Construct's Event Control
Warning (10235): Verilog HDL Always Construct warning at f5.v(258): variable "ch2_duty" is read inside the Always Construct but isn't in the Always Construct's Event Control
Warning (10235): Verilog HDL Always Construct warning at f5.v(259): variable "ch2_duty" is read inside the Always Construct but isn't in the Always Construct's Event Control
Warning (10235): Verilog HDL Always Construct warning at f5.v(260): variable "ch2_duty" is read inside the Always Construct but isn't in the Always Construct's Event Control
Warning (10235): Verilog HDL Always Construct warning at f5.v(261): variable "ch2_duty" is read inside the Always Construct but isn't in the Always Construct's Event Control
Warning (10240): Verilog HDL Always Construct warning at f5.v(157): inferring latch(es) for variable "fq3_latch", which holds its previous value in one or more paths through the always construct
Warning (10240): Verilog HDL Always Construct warning at f5.v(157): inferring latch(es) for variable "fq4_latch", which holds its previous value in one or more paths through the always construct
Warning (10240): Verilog HDL Always Construct warning at f5.v(157): inferring latch(es) for variable "fq5_latch", which holds its previous value in one or more paths through the always construct
Warning (10240): Verilog HDL Always Construct warning at f5.v(157): inferring latch(es) for variable "duty2_latch", which holds its previous value in one or more paths through the always construct
Warning (10230): Verilog HDL assignment warning at f5.v(273): truncated value with size 32 to match size of target (19)
Warning (10230): Verilog HDL assignment warning at f5.v(280): truncated value with size 32 to match size of target (19)
Info (10041): Inferred latch for "fq5_latch[0]" at f5.v(157)
Info (10041): Inferred latch for "fq5_latch[1]" at f5.v(157)
Info (10041): Inferred latch for "fq5_latch[2]" at f5.v(157)
Info (10041): Inferred latch for "fq5_latch[3]" at f5.v(157)
Info (10041): Inferred latch for "fq5_latch[4]" at f5.v(157)
Info (10041): Inferred latch for "fq5_latch[5]" at f5.v(157)
Info (10041): Inferred latch for "fq5_latch[6]" at f5.v(157)
Info (10041): Inferred latch for "fq4_latch[0]" at f5.v(157)
Info (10041): Inferred latch for "fq4_latch[1]" at f5.v(157)
Info (10041): Inferred latch for "fq4_latch[2]" at f5.v(157)
Info (10041): Inferred latch for "fq4_latch[3]" at f5.v(157)
Info (10041): Inferred latch for "fq4_latch[4]" at f5.v(157)
Info (10041): Inferred latch for "fq4_latch[5]" at f5.v(157)
Info (10041): Inferred latch for "fq4_latch[6]" at f5.v(157)
Info (10041): Inferred latch for "fq3_latch[0]" at f5.v(157)
Info (10041): Inferred latch for "fq3_latch[1]" at f5.v(157)
Info (10041): Inferred latch for "fq3_latch[2]" at f5.v(157)
Info (10041): Inferred latch for "fq3_latch[3]" at f5.v(157)
Info (10041): Inferred latch for "fq3_latch[4]" at f5.v(157)
Info (10041): Inferred latch for "fq3_latch[5]" at f5.v(157)
Info (10041): Inferred latch for "fq3_latch[6]" at f5.v(157)
Info (10041): Inferred latch for "duty2_latch[0]" at f5.v(213)
Info (10041): Inferred latch for "duty2_latch[1]" at f5.v(213)
Info (10041): Inferred latch for "duty2_latch[2]" at f5.v(213)
Info (10041): Inferred latch for "duty2_latch[3]" at f5.v(213)
Info (10041): Inferred latch for "duty2_latch[4]" at f5.v(213)
Info (10041): Inferred latch for "duty2_latch[5]" at f5.v(213)
Info (10041): Inferred latch for "duty2_latch[6]" at f5.v(213)
Info (10041): Inferred latch for "ch2_duty_low_value[0]" at f5.v(121)
Info (10041): Inferred latch for "ch2_duty_low_value[1]" at f5.v(121)
Info (10041): Inferred latch for "ch2_duty_low_value[2]" at f5.v(121)
Info (10041): Inferred latch for "ch2_duty_low_value[3]" at f5.v(121)
Info (10041): Inferred latch for "ch2_duty_low_value[4]" at f5.v(121)
Info (10041): Inferred latch for "ch2_duty_low_value[5]" at f5.v(121)
Info (10041): Inferred latch for "ch2_duty_low_value[6]" at f5.v(121)
Info (10041): Inferred latch for "ch2_duty_high_value[0]" at f5.v(121)
Info (10041): Inferred latch for "ch2_duty_high_value[1]" at f5.v(121)
Info (10041): Inferred latch for "ch2_duty_high_value[2]" at f5.v(121)
Info (10041): Inferred latch for "ch2_duty_high_value[3]" at f5.v(121)
Info (10041): Inferred latch for "ch2_duty_high_value[4]" at f5.v(121)
Info (10041): Inferred latch for "ch2_duty_high_value[5]" at f5.v(121)
Info (10041): Inferred latch for "ch2_duty_high_value[6]" at f5.v(121)
Info (10041): Inferred latch for "ch1_duty_low_value[0]" at f5.v(85)
Info (10041): Inferred latch for "ch1_duty_low_value[1]" at f5.v(85)
Info (10041): Inferred latch for "ch1_duty_low_value[2]" at f5.v(85)
Info (10041): Inferred latch for "ch1_duty_low_value[3]" at f5.v(85)
Info (10041): Inferred latch for "ch1_duty_low_value[4]" at f5.v(85)
Info (10041): Inferred latch for "ch1_duty_low_value[5]" at f5.v(85)
Info (10041): Inferred latch for "ch1_duty_low_value[6]" at f5.v(85)
Info (10041): Inferred latch for "ch1_duty_high_value[0]" at f5.v(85)
Info (10041): Inferred latch for "ch1_duty_high_value[1]" at f5.v(85)
Info (10041): Inferred latch for "ch1_duty_high_value[2]" at f5.v(85)
Info (10041): Inferred latch for "ch1_duty_high_value[3]" at f5.v(85)
Info (10041): Inferred latch for "ch1_duty_high_value[4]" at f5.v(85)
Info (10041): Inferred latch for "ch1_duty_high_value[5]" at f5.v(85)
Info (10041): Inferred latch for "ch1_duty_high_value[6]" at f5.v(85)
Info (10041): Inferred latch for "ch2_fq_clk[0]" at f5.v(69)
Info (10041): Inferred latch for "ch2_fq_clk[1]" at f5.v(69)
Info (10041): Inferred latch for "ch2_fq_clk[2]" at f5.v(69)
Info (10041): Inferred latch for "ch2_fq_clk[3]" at f5.v(69)
Info (10041): Inferred latch for "ch2_fq_clk[4]" at f5.v(69)
Info (10041): Inferred latch for "ch2_fq_clk[5]" at f5.v(69)
Info (10041): Inferred latch for "ch2_fq_clk[6]" at f5.v(69)
Info (10041): Inferred latch for "ch2_fq_clk[7]" at f5.v(69)
Info (10041): Inferred latch for "ch2_fq_clk[8]" at f5.v(69)
Info (10041): Inferred latch for "ch2_fq_clk[9]" at f5.v(69)
Info (10041): Inferred latch for "ch2_fq_clk[10]" at f5.v(69)
Info (10041): Inferred latch for "ch2_fq_clk[11]" at f5.v(69)
Info (10041): Inferred latch for "ch2_fq_clk[12]" at f5.v(69)
Info (10041): Inferred latch for "ch1_fq_clk[0]" at f5.v(49)
Info (10041): Inferred latch for "ch1_fq_clk[1]" at f5.v(49)
Info (10041): Inferred latch for "ch1_fq_clk[2]" at f5.v(49)
Info (10041): Inferred latch for "ch1_fq_clk[3]" at f5.v(49)
Info (10041): Inferred latch for "ch1_fq_clk[4]" at f5.v(49)
Info (10041): Inferred latch for "ch1_fq_clk[5]" at f5.v(49)
Info (10041): Inferred latch for "ch1_fq_clk[6]" at f5.v(49)
Info (10041): Inferred latch for "ch1_fq_clk[7]" at f5.v(49)
Info (10041): Inferred latch for "ch1_fq_clk[8]" at f5.v(49)
Info (10041): Inferred latch for "ch1_fq_clk[9]" at f5.v(49)
Info (10041): Inferred latch for "ch1_fq_clk[10]" at f5.v(49)
Info (10041): Inferred latch for "ch1_fq_clk[11]" at f5.v(49)
Info (10041): Inferred latch for "ch1_fq_clk[12]" at f5.v(49)
Warning: LATCH primitive "fq3_latch[0]" is permanently enabled
Warning: LATCH primitive "fq3_latch[1]" is permanently enabled
Warning: LATCH primitive "fq3_latch[2]" is permanently enabled
Warning: LATCH primitive "fq3_latch[3]" is permanently enabled
Warning: LATCH primitive "fq3_latch[4]" is permanently enabled
Warning: LATCH primitive "fq3_latch[5]" is permanently enabled
Warning: LATCH primitive "fq3_latch[6]" is permanently enabled
Warning: LATCH primitive "fq4_latch[0]" is permanently enabled
Warning: LATCH primitive "fq4_latch[1]" is permanently enabled
Warning: LATCH primitive "fq4_latch[2]" is permanently enabled
Warning: LATCH primitive "fq4_latch[3]" is permanently enabled
Warning: LATCH primitive "fq4_latch[4]" is permanently enabled
Warning: LATCH primitive "fq4_latch[5]" is permanently enabled
Warning: LATCH primitive "fq4_latch[6]" is permanently enabled
Warning: LATCH primitive "fq5_latch[1]" is permanently enabled
Warning: LATCH primitive "fq5_latch[2]" is permanently enabled
Warning: LATCH primitive "duty2_latch[0]" is permanently enabled
Warning: LATCH primitive "duty2_latch[1]" is permanently enabled
Warning: LATCH primitive "duty2_latch[2]" is permanently enabled
Warning: LATCH primitive "duty2_latch[3]" is permanently enabled
Warning: LATCH primitive "duty2_latch[4]" is permanently enabled
Warning: LATCH primitive "duty2_latch[5]" is permanently enabled
Warning: LATCH primitive "duty2_latch[6]" is permanently enabled
Info: Inferred 4 megafunctions from design logic
    Info: Inferred multiplier megafunction ("lpm_mult") from the following logic: "Mult1"
    Info: Inferred multiplier megafunction ("lpm_mult") from the following logic: "Mult0"
    Info: Inferred multiplier megafunction ("lpm_mult") from the following logic: "Mult3"
    Info: Inferred multiplier megafunction ("lpm_mult") from the following logic: "Mult2"
Info: Elaborated megafunction instantiation "lpm_mult:Mult1"
Info: Instantiated megafunction "lpm_mult:Mult1" with the following parameter:
    Info: Parameter "LPM_WIDTHA" = "13"
    Info: Parameter "LPM_WIDTHB" = "7"
    Info: Parameter "LPM_WIDTHP" = "20"
    Info: Parameter "LPM_WIDTHR" = "20"
    Info: Parameter "LPM_WIDTHS" = "1"
    Info: Parameter "LPM_REPRESENTATION" = "UNSIGNED"
    Info: Parameter "INPUT_A_IS_CONSTANT" = "NO"
    Info: Parameter "INPUT_B_IS_CONSTANT" = "NO"
    Info: Parameter "MAXIMIZE_SPEED" = "6"
Info: Found 1 design units, including 1 entities, in source file db/mult_hbt.tdf
    Info: Found entity 1: mult_hbt
>>>>>>> 002d9b5a5c5f6b24948d6b2f42f0df9cf449b7c5
Warning: Output pins are stuck at VCC or GND
    Warning (13410): Pin "fq1[0]" is stuck at GND
    Warning (13410): Pin "fq1[1]" is stuck at GND
    Warning (13410): Pin "fq1[2]" is stuck at GND
    Warning (13410): Pin "fq1[3]" is stuck at GND
    Warning (13410): Pin "fq1[4]" is stuck at GND
    Warning (13410): Pin "fq1[5]" is stuck at GND
    Warning (13410): Pin "fq1[6]" is stuck at VCC
    Warning (13410): Pin "fq2[0]" is stuck at GND
    Warning (13410): Pin "fq2[1]" is stuck at GND
    Warning (13410): Pin "fq2[2]" is stuck at GND
    Warning (13410): Pin "fq2[3]" is stuck at GND
    Warning (13410): Pin "fq2[4]" is stuck at GND
    Warning (13410): Pin "fq2[5]" is stuck at GND
    Warning (13410): Pin "fq2[6]" is stuck at VCC
    Warning (13410): Pin "fq5[0]" is stuck at VCC
    Warning (13410): Pin "fq5[3]" is stuck at VCC
    Warning (13410): Pin "fq5[4]" is stuck at VCC
    Warning (13410): Pin "fq5[5]" is stuck at VCC
    Warning (13410): Pin "fq5[6]" is stuck at VCC
    Warning (13410): Pin "duty1[0]" is stuck at GND
    Warning (13410): Pin "duty1[1]" is stuck at GND
    Warning (13410): Pin "duty1[2]" is stuck at GND
    Warning (13410): Pin "duty1[3]" is stuck at GND
    Warning (13410): Pin "duty1[4]" is stuck at GND
    Warning (13410): Pin "duty1[5]" is stuck at GND
    Warning (13410): Pin "duty1[6]" is stuck at VCC
    Warning (13410): Pin "lcd[0]" is stuck at GND
    Warning (13410): Pin "lcd[1]" is stuck at GND
    Warning (13410): Pin "lcd[2]" is stuck at GND
    Warning (13410): Pin "lcd[3]" is stuck at GND
    Warning (13410): Pin "lcd[4]" is stuck at GND
    Warning (13410): Pin "lcd[5]" is stuck at GND
    Warning (13410): Pin "lcd[6]" is stuck at GND
    Warning (13410): Pin "lcd[7]" is stuck at GND
    Warning (13410): Pin "lcden" is stuck at GND
    Warning (13410): Pin "lcdrs" is stuck at GND
    Warning (13410): Pin "lcdrw" is stuck at GND
Info: Timing-Driven Synthesis is running
Info: Generated suppressed messages file D:/DSL/de2/f5/f5.map.smsg
Info: Generating hard_block partition "hard_block:auto_generated_inst"
<<<<<<< HEAD
<<<<<<< HEAD
Info: Implemented 98 device resources after synthesis - the final resource count might be different
    Info: Implemented 7 input pins
    Info: Implemented 61 output pins
    Info: Implemented 30 logic cells
Info: Quartus II Analysis & Synthesis was successful. 0 errors, 59 warnings
    Info: Peak virtual memory: 264 megabytes
    Info: Processing ended: Mon Apr 29 17:03:51 2013
    Info: Elapsed time: 00:00:01
    Info: Total CPU time (on all processors): 00:00:02
=======
Info: Implemented 145 device resources after synthesis - the final resource count might be different
    Info: Implemented 7 input pins
    Info: Implemented 50 output pins
    Info: Implemented 84 logic cells
    Info: Implemented 4 DSP elements
Info: Quartus II Analysis & Synthesis was successful. 0 errors, 35 warnings
    Info: Peak virtual memory: 258 megabytes
    Info: Processing ended: Mon Apr 29 19:00:07 2013
    Info: Elapsed time: 00:00:03
    Info: Total CPU time (on all processors): 00:00:03
>>>>>>> 002d9b5a5c5f6b24948d6b2f42f0df9cf449b7c5
=======
Info: Implemented 254 device resources after synthesis - the final resource count might be different
    Info: Implemented 14 input pins
    Info: Implemented 51 output pins
    Info: Implemented 181 logic cells
    Info: Implemented 8 DSP elements
Info: Quartus II Analysis & Synthesis was successful. 0 errors, 94 warnings
    Info: Peak virtual memory: 256 megabytes
    Info: Processing ended: Mon Apr 29 20:31:18 2013
    Info: Elapsed time: 00:00:03
    Info: Total CPU time (on all processors): 00:00:04


+------------------------------------------+
; Analysis & Synthesis Suppressed Messages ;
+------------------------------------------+
The suppressed messages can be found in D:/DSL/de2/f5/f5.map.smsg.
>>>>>>> b129323665fb248d977efe358d0275a874c11f21


